id,name,model_id:id,group_id:id,perm_read,perm_write,perm_create,perm_unlink
access_schedule_calendar_event_user,schedule.calendar.event.user,model_schedule_calendar,base.group_user,1,1,1,0
access_schedule_calendar_event_manager,schedule.calendar.event.manager,model_schedule_calendar,base.group_partner_manager,1,1,1,0
